{
    "KPlugin": {
        "Authors": [
            {
                "Email": "aseigo@kde.org",
                "Name": "Aaron Seigo",
                "Name[ar]": "Aaron Seigo",
                "Name[az]": "Aaron Seigo",
                "Name[be]": "Aaron Seigo",
                "Name[bg]": "Aaron Seigo",
                "Name[ca@valencia]": "Aaron Seigo",
                "Name[ca]": "Aaron Seigo",
                "Name[cs]": "Aaron Seigo",
                "Name[da]": "Aaron Seigo",
                "Name[de]": "Aaron Seigo",
                "Name[en_GB]": "Aaron Seigo",
                "Name[eo]": "Aaron Seigo",
                "Name[es]": "Aaron Seigo",
                "Name[et]": "Aaron Seigo",
                "Name[eu]": "Aaron Seigo",
                "Name[fi]": "Aaron Seigo",
                "Name[fr]": "Aaron Seigo",
                "Name[hi]": "एरोन सैगो",
                "Name[hu]": "Aaron Seigo",
                "Name[ia]": "Aaron Seigo",
                "Name[id]": "Aaron Seigo",
                "Name[is]": "Aaron Seigo",
                "Name[it]": "Aaron Seigo",
                "Name[ja]": "Aaron Seigo",
                "Name[ka]": "აარონ სეიგო",
                "Name[ko]": "Aaron Seigo",
                "Name[lt]": "Aaron Seigo",
                "Name[nl]": "Aaron Seigo",
                "Name[nn]": "Aaron Seigo",
                "Name[pl]": "Aaron Seigo",
                "Name[pt]": "Aaron Seigo",
                "Name[pt_BR]": "Aaron Seigo",
                "Name[ro]": "Aaron Seigo",
                "Name[ru]": "Aaron Seigo",
                "Name[sk]": "Aaron Seigo",
                "Name[sl]": "Aaron Seigo",
                "Name[sv]": "Aaron Seigo",
                "Name[ta]": "ஆரோன் சீகோ",
                "Name[tr]": "Aaron Seigo",
                "Name[uk]": "Aaron Seigo",
                "Name[vi]": "Aaron Seigo",
                "Name[x-test]": "xxAaron Seigoxx",
                "Name[zh_CN]": "Aaron Seigo",
                "Name[zh_TW]": "Aaron Seigo"
            }
        ],
        "Category": "Accessibility",
        "Description": "Keyboard modifier and mouse buttons states",
        "Description[ar]": "حالات مُعدِّل لوحة المفاتيح وأزرار الفأرة",
        "Description[az]": "Dəyişdirici klaviatura düyməsi və siçan düymələri vəziyyəti",
        "Description[be]": "Стан клавіш-мадыфікатараў і кнопак мышы",
        "Description[bg]": "Състояние на клавиатурни модификатори и бутони на мишката",
        "Description[ca@valencia]": "Modificador de l'estat del teclat i dels botons del ratolí",
        "Description[ca]": "Modificador de l'estat del teclat i dels botons del ratolí",
        "Description[cs]": "Stavy modifikátorů klávesnice a tlačítek myši",
        "Description[da]": "Tilstand for tastaturets ændringstaster og museknapper",
        "Description[de]": "Status von Modifizierer- und Maustasten",
        "Description[en_GB]": "Keyboard modifier and mouse buttons states",
        "Description[eo]": "Stato de klavaro kaj muso",
        "Description[es]": "Estado del modificador de teclado y botones del ratón",
        "Description[et]": "Klaviatuuri muuteklahvide ja hiirenuppude olekud",
        "Description[eu]": "Teklatuaren aldatzailearen eta saguaren botoien egoerak",
        "Description[fi]": "Muuntonäppäinten ja hiiripainikkeiden tilat",
        "Description[fr]": "Modificateur du clavier et des états des boutons de souris.",
        "Description[hi]": "कुंजीपटल संशोधक और माउस बटन स्थितियाँ",
        "Description[hu]": "Módosítóbillentyűk és egérgombok",
        "Description[ia]": "Modificator de claviero e statos de buttones del mus",
        "Description[id]": "Pemodif keyboard dan keadaan tombol mouse",
        "Description[is]": "Staða á breytilyklum á lyklaborði og músarhnöppum",
        "Description[it]": "Stati dei modificatori della tastiera e dei pulsanti del mouse",
        "Description[ja]": "キーボードの修飾キーとマウスボタンの状態",
        "Description[ka]": "კლავიატურის მოდიფიკატორი და თაგუნას ღილაკების მდგოარეობები",
        "Description[ko]": "키보드 수정자 키 및 마우스 단추 상태",
        "Description[lt]": "Klaviatūros modifikatorių ir pelės mygtukų būsenos",
        "Description[nl]": "Wijzigt toetsenbord en muisknoptoestanden",
        "Description[nn]": "Status for valtastar og museknappar",
        "Description[pa]": "ਕੀਬੋਰਡ ਸੋਧਕ ਅਤੇ ਮਾਊਂਸ ਬਟਨ ਹਾਲਤ",
        "Description[pl]": "Wyświetla stany modyfikatorów klawiatury i przycisków myszy",
        "Description[pt]": "Estados das teclas modificadoras e dos botões do rato",
        "Description[pt_BR]": "Estados do modificador de teclado e botões do mouse",
        "Description[ro]": "Stările modificatorului de tastatură și a butoanelor mausului",
        "Description[ru]": "Состояния клавиш-модификаторов на клавиатуре и кнопок мыши",
        "Description[sk]": "Stavy modifikátorov klávesnice a tlačidiel myši",
        "Description[sl]": "Stanje spremenilnih tipk tipkovnice in tipk miške",
        "Description[sv]": "Tillstånd för väljartangenter och musknappar",
        "Description[ta]": "விசைப்பலகை மாற்றி விசைகளின் மற்றும் சுட்டி பட்டன்களின் நிலை",
        "Description[tr]": "Fare ve klavye değiştiricileri durumu",
        "Description[uk]": "Стан модифікаторів клавіатури і кнопок миші",
        "Description[vi]": "Trạng thái phím bổ trợ và nút chuột",
        "Description[x-test]": "xxKeyboard modifier and mouse buttons statesxx",
        "Description[zh_CN]": "显示键盘修饰健及鼠标按键状态",
        "Description[zh_TW]": "鍵盤組合鍵與滑鼠按鍵狀態",
        "EnabledByDefault": true,
        "Icon": "input-keyboard",
        "License": "LGPL",
        "Name": "Keyboard and Mouse State",
        "Name[ar]": "حالة الفارة ولوحة المفاتيح",
        "Name[az]": "Klaviatura və Siçan vəziyyəti",
        "Name[be]": "Стан клавіятуры і мышы",
        "Name[bg]": "Състояние на клавиатура и мишка",
        "Name[bn]": "কীবোর্ড ও মাউস অবস্থা",
        "Name[bs]": "Stanje tastature i miša",
        "Name[ca@valencia]": "Estat del teclat i ratolí",
        "Name[ca]": "Estat del teclat i ratolí",
        "Name[cs]": "Stav klávesnice a myši",
        "Name[csb]": "Stón klawiaturë ë mëszë",
        "Name[da]": "Tilstand for tastatur og mus",
        "Name[de]": "Status von Tastatur und Maus",
        "Name[el]": "Κατάσταση πληκτρολογίου  και ποντικιού",
        "Name[en_GB]": "Keyboard and Mouse State",
        "Name[eo]": "Stato de klavaro kaj muso",
        "Name[es]": "Estado del teclado y del ratón",
        "Name[et]": "Klaviatuuri ja hiire olek",
        "Name[eu]": "Teklatuaren eta saguaren egoera",
        "Name[fi]": "Näppäimistön ja hiiren tila",
        "Name[fr]": "États du clavier et de la souris",
        "Name[fy]": "Toetseboerd en mûs tastân",
        "Name[ga]": "Staid an Mhéarchláir agus na Luiche",
        "Name[gl]": "Estado do teclado e do rato",
        "Name[gu]": "કીબોર્ડ અને માઉસ સ્થિતિ",
        "Name[he]": "מצב מקלדת ועכבר",
        "Name[hi]": "कुंजीपटल व माउस स्थिति",
        "Name[hr]": "Stanje tipkovnice i miša",
        "Name[hsb]": "Staw tastatury a myše",
        "Name[hu]": "Egér- és billentyűzetállapot-jelző",
        "Name[ia]": "Stato del mus e del claviero",
        "Name[id]": "Keadaan Mouse dan Keyboard",
        "Name[is]": "Staða lyklaborðs og músar",
        "Name[it]": "Stato di tastiera e mouse",
        "Name[ja]": "キーボードとマウスの状態",
        "Name[ka]": "კლავიატურისა და თაგუნას მდგომარეობა",
        "Name[kk]": "Перенетақта мен тышқанның күй-жайы",
        "Name[km]": "ស្ថានភាព​ក្ដារចុច និង​កណ្ដុល",
        "Name[kn]": "ಕೀಲಿಮಣೆ ಮತ್ತು ಮೌಸ್‌ನ ಸ್ಥಿತಿ",
        "Name[ko]": "키보드와 마우스 상태",
        "Name[lt]": "Klaviatūros ir pelės būsena",
        "Name[lv]": "Tastatūra un peles stāvoklis",
        "Name[mk]": "Состојба на тастатура и глушец",
        "Name[ml]": "കീബോര്‍ഡിന്റേയും മൌസിന്റേയും അവസ്ഥ",
        "Name[mr]": "कळफलक व माऊस स्थिती",
        "Name[nb]": "Tilstand for tastatur og mus",
        "Name[nds]": "Tastatuur- un Muus-Status",
        "Name[nl]": "Toetsenbord en muisstatus",
        "Name[nn]": "Status for tastatur og mus",
        "Name[pa]": "ਕੀ-ਬੋਰਡ ਅਤੇ ਮਾਊਂਸ ਹਾਲਤ",
        "Name[pl]": "Stan klawiatury i myszy",
        "Name[pt]": "Estado do Teclado e Rato",
        "Name[pt_BR]": "Estado do teclado e mouse",
        "Name[ro]": "Starea tastaturii și mausului",
        "Name[ru]": "Состояние клавиатуры и мыши",
        "Name[si]": "යතුරුපුවරුව සහ මවුස තත්වය",
        "Name[sk]": "Stav klávesnice a myši",
        "Name[sl]": "Stanje tipkovnice in miške",
        "Name[sr@ijekavian]": "стање тастатуре и миша",
        "Name[sr@ijekavianlatin]": "stanje tastature i miša",
        "Name[sr@latin]": "stanje tastature i miša",
        "Name[sr]": "стање тастатуре и миша",
        "Name[sv]": "Tillstånd för tangentbord och mus",
        "Name[ta]": "விசைப்பலகை மற்றும் சுட்டியின் நிலை",
        "Name[tg]": "Клавиатура ва муш",
        "Name[th]": "สถานะของแป้นพิมพ์และเมาส์",
        "Name[tr]": "Klavye ve Fare Durumu",
        "Name[ug]": "ھەرپتاختا ۋە چاشقىنەك ھالىتى",
        "Name[uk]": "Стан клавіатури і миші",
        "Name[vi]": "Trạng thái bàn phím và chuột",
        "Name[wa]": "Estat del taprece et del sori",
        "Name[x-test]": "xxKeyboard and Mouse Statexx",
        "Name[zh_CN]": "键盘和鼠标状态",
        "Name[zh_TW]": "鍵盤與滑鼠狀態",
        "Website": "https://www.kde.org/plasma-desktop"
    }
}
