{
    "KPlugin": {
        "Description": "Play audible feedback when devices are inserted or removed",
        "Description[bg]": "Издаване на звуков сигнал за обратна връзка при добавяне или отделяне на устройства",
        "Description[ca@valencia]": "Reproduïx una reacció audible quan s'inserisquen o s'extraguen dispositius",
        "Description[ca]": "Reprodueix una reacció audible quan s'insereixin o s'extreguin dispositius",
        "Description[eo]": "Ludi aŭdeblan retroinformon kiam aparatoj estas enmetitaj aŭ malmetitaj",
        "Description[es]": "Reproducir un sonido cuando se insertan o extraen dispositivos",
        "Description[eu]": "Jo erreakzio entzungarria, gailuak txertatzen edo kentzen direnean",
        "Description[ia]": "Executa resposta audibile quando dispositivos es insertate o removite",
        "Description[it]": "Riproduci un riscontro acustico quando i dispositivi sono inseriti o rimossi",
        "Description[ka]": "მოწყობილობების შეერთება/გამოერთებისას უკუკავშირის გასაგები ხმის დაკვრა",
        "Description[ko]": "장치가 연결되거나 제거되었을 때 청각적 피드백 재생",
        "Description[nl]": "Hoorbare terugkoppeling afspelen wanneer apparaten ingeplugd of verwijderd worden",
        "Description[nn]": "Spel av lyd når einingar vert kopla til eller frå",
        "Description[sk]": "Prehrať zvukovú odozvu pri pripojení alebo odpojení zariadenia",
        "Description[sl]": "Predvajaj zvočno povratno informacijo, kadar so naprave vstavljene ali odstranjene",
        "Description[ta]": "சாதனங்கள் செருகப்படும்போதும் கழற்றப்படும்போதும் ஒலியெழுப்பு",
        "Description[tr]": "Aygıtlar takıldığında veya çıkarıldığında sesle geri bildirim ver",
        "Description[uk]": "Відтворювати звуковий сигнал при з'єднанні або від'єднанні пристроїв",
        "Description[x-test]": "xxPlay audible feedback when devices are inserted or removedxx",
        "Description[zh_CN]": "插入/移除设备时发出声音提示",
        "Description[zh_TW]": "插入或移除裝置時播放音效回饋",
        "Name": "Device Notifications",
        "Name[ar]": "إخطارات الأجهزة",
        "Name[az]": "Qurğular haqqında məlumatlar",
        "Name[be]": "Апавяшчэнні прылад",
        "Name[bg]": "Уведомления от устройства",
        "Name[bn]": "ডিভাইস বিজ্ঞপ্তি",
        "Name[bs]": "Obavještenja o uređajima",
        "Name[ca@valencia]": "Notificacions dels dispositius",
        "Name[ca]": "Notificacions dels dispositius",
        "Name[cs]": "Upozornění zařízení",
        "Name[da]": "Enhedsbekendtgørelser",
        "Name[de]": "Geräte-Benachrichtigungen",
        "Name[el]": "Ειδοποιήσεις συσκευών",
        "Name[en_GB]": "Device Notifications",
        "Name[eo]": "Aparat-Atentigoj",
        "Name[es]": "Notificaciones de dispositivo",
        "Name[et]": "Seadmete märguanded",
        "Name[eu]": "Gailu-jakinarazpenak",
        "Name[fi]": "Laiteilmoitukset",
        "Name[fr]": "Notifications des périphériques",
        "Name[ga]": "Fógraí Gléasanna",
        "Name[gl]": "Notificacións dos dispositivos",
        "Name[he]": "הודעות של התקנים",
        "Name[hi]": "औज़ार सूचनाएँ",
        "Name[hr]": "Obavijesti uređaja",
        "Name[hsb]": "Zdźělenki grata",
        "Name[hu]": "Eszközértesítések",
        "Name[ia]": "Notificationes de dispositivo",
        "Name[id]": "Notifikasi Peranti",
        "Name[is]": "Tilkynningar um tæki",
        "Name[it]": "Notifiche dei dispositivi",
        "Name[ja]": "デバイスの通知",
        "Name[ka]": "მოწყობილობის შეტყობინება",
        "Name[kk]": "Құрылғы құлақтандырулары",
        "Name[km]": "ការ​​ជូន​ដំណឹង​​ឧបករណ៍",
        "Name[kn]": "ಸಾಧನ ಸೂಚನೆಗಳು",
        "Name[ko]": "장치 알림",
        "Name[lt]": "Pranešimai apie įrenginius",
        "Name[lv]": "Iekārtu paziņojumi",
        "Name[ml]": "ഡിവൈസിനെപറ്റിയുള്ള അറിയിപ്പുകള്‍",
        "Name[mr]": "साधन सूचना",
        "Name[nb]": "Enhetsvarslinger",
        "Name[nds]": "Reedschap-Bescheden",
        "Name[nl]": "Meldingen van apparaten",
        "Name[nn]": "Einings­varslingar",
        "Name[pa]": "ਜੰਤਰ ਨੋਟੀਫਿਕੇਸ਼ਨ",
        "Name[pl]": "Powiadomienia urządzeń",
        "Name[pt]": "Notificações de Dispositivos",
        "Name[pt_BR]": "Notificações de dispositivos",
        "Name[ro]": "Notificări dispozitive",
        "Name[ru]": "Уведомления об устройствах",
        "Name[si]": "මෙවලම් දැනුම් දීම්",
        "Name[sk]": "Upozornenia zariadení",
        "Name[sl]": "Obvestila o napravah",
        "Name[sr@ijekavian]": "Обавјештења о уређајима",
        "Name[sr@ijekavianlatin]": "Obavještenja o uređajima",
        "Name[sr@latin]": "Obaveštenja o uređajima",
        "Name[sr]": "Обавештења о уређајима",
        "Name[sv]": "Enhetsunderrättelser",
        "Name[ta]": "சாதன அறிவிப்புகள்",
        "Name[tg]": "Огоҳиҳои дастгоҳ",
        "Name[th]": "การแจ้งเกี่ยวกับอุปกรณ์",
        "Name[tr]": "Aygıt Bildirimleri",
        "Name[ug]": "ئۈسكۈنە ئۇقتۇرۇشلىرى",
        "Name[uk]": "Сповіщення про пристрої",
        "Name[vi]": "Thông báo của thiết bị",
        "Name[wa]": "Notifiaedjes des éndjins",
        "Name[x-test]": "xxDevice Notificationsxx",
        "Name[zh_CN]": "设备通知",
        "Name[zh_TW]": "裝置通知"
    },
    "X-KDE-Kded-autoload": true
}
